1	Rice	Grain	1,00
2	Semolina	Grain	2,00
3	Wheat	Grain	1,50
4	Buckwheat	Grain	2,40
5	Oats	Grain	2,70
6	Potato	Vegetable	1,00
7	Beetroot	Vegetable	2,00
8	Cabbage	Vegetable	1,30
9	Apple	Fruit	3,50
10	Orange	Fruit	3,00
11	Banana	Fruit	2,80
